…
    Home

Salaries

This app scrapes salary data from Hoopshype.com and combines them into one single table that is sortable and filterable.

Stats

per_game_stats <- NBAPerGameStatistics(season = 2017)

(filter <- per_game_stats %>% 
    group_by(Player, Pos) %>%
    filter(Tm == "TOT" | n()==1))

## # A tibble: 488 x 31
## # Groups:   Player, Pos [488]
##       Rk            Player   Pos   Age    Tm     G    GS    MP    FG   FGA
##    <dbl>             <chr> <chr> <dbl> <chr> <dbl> <dbl> <dbl> <dbl> <dbl>
##  1     1      Alex Abrines    SG    23   OKC    68     6  15.5   2.0   5.0
##  2     2        Quincy Acy    PF    26   TOT    38     1  14.7   1.8   4.5
##  3     3      Steven Adams     C    23   OKC    80    80  29.9   4.7   8.2
##  4     4     Arron Afflalo    SG    31   SAC    61    45  25.9   3.0   6.9
##  5     5     Alexis Ajinca     C    28   NOP    39    15  15.0   2.3   4.6
##  6     6      Cole Aldrich     C    28   MIN    62     0   8.6   0.7   1.4
##  7     7 LaMarcus Aldridge    PF    31   SAS    72    72  32.4   6.9  14.6
##  8     8       Lavoy Allen    PF    27   IND    61     5  14.3   1.3   2.8
##  9     9        Tony Allen    SG    35   MEM    71    66  27.0   3.9   8.4
## 10    10   Al-Farouq Aminu    SF    26   POR    61    25  29.1   3.0   7.6
## # ... with 478 more rows, and 21 more variables: FGP <dbl>, `3P` <dbl>,
## #   `3PA` <dbl>, `3PP` <dbl>, `2P` <dbl>, `2PA` <dbl>, `2PP` <dbl>,
## #   eFGP <dbl>, FT <dbl>, FTA <dbl>, FTP <dbl>, ORB <dbl>, DRB <dbl>,
## #   TRB <dbl>, AST <dbl>, STL <dbl>, BLK <dbl>, TOV <dbl>, PF <dbl>,
## #   `PS/G` <dbl>, link <chr>
